%!PS-Adobe-2.0 EPSF-2.0
%%BoundingBox:  0 0 567 183
%%Title: plots.ICHEP2018.mc16ad.v04/Initial_mc16ad.eps: Initial
%%Creator: ROOT Version 6.10/08
%%CreationDate: Mon Sep 24 14:15:43 2018
%%DocumentNeededResources: ProcSet (FontSetInit)
%%EndComments
%%BeginProlog
80 dict begin
/s {stroke} def /l {lineto} def /m {moveto} def /t {translate} def
/r {rotate} def /rl {roll}  def /R {repeat} def
/d {rlineto} def /rm {rmoveto} def /gr {grestore} def /f {eofill} def
/c {setrgbcolor} def /black {0 setgray} def /sd {setdash} def
/cl {closepath} def /sf {scalefont setfont} def /lw {setlinewidth} def
/box {m dup 0 exch d exch 0 d 0 exch neg d cl} def
/NC{systemdict begin initclip end}def/C{NC box clip newpath}def
/bl {box s} def /bf {gsave box gsave f grestore 1 lw [] 0 sd s grestore} def /Y { 0 exch d} def /X { 0 d} def 
/K {{pop pop 0 moveto} exch kshow} bind def
/ita {/ang 15 def gsave [1 0 ang dup sin exch cos div 1 0 0] concat} def 
/mp {newpath /y exch def /x exch def} def
/side {[w .77 mul w .23 mul] .385 w mul sd w 0 l currentpoint t -144 r} def
/mr {mp x y w2 0 360 arc} def /m24 {mr s} def /m20 {mr f} def
/mb {mp x y w2 add m w2 neg 0 d 0 w neg d w 0 d 0 w d cl} def
/mt {mp x y w2 add m w2 neg w neg d w 0 d cl} def
/w4 {w 4 div} def
/w6 {w 6 div} def
/w8 {w 8 div} def
/m21 {mb f} def /m25 {mb s} def /m22 {mt f} def /m26{mt s} def
/m23 {mp x y w2 sub m w2 w d w neg 0 d cl f} def
/m27 {mp x y w2 add m w3 neg w2 neg d w3 w2 neg d w3 w2 d cl s} def
/m28 {mp x w2 sub y w2 sub w3 add m w3 0 d  0 w3 neg d w3 0 d 0 w3 d w3 0 d  0 w3 d w3 neg 0 d 0 w3 d w3 neg 0 d 0 w3 neg d w3 neg 0 d cl s } def
/m29 {mp gsave x w2 sub y w2 add w3 sub m currentpoint t 4 {side} repeat cl fill gr} def
/m30 {mp gsave x w2 sub y w2 add w3 sub m currentpoint t 4 {side} repeat cl s gr} def
/m31 {mp x y w2 sub m 0 w d x w2 sub y m w 0 d x w2 sub y w2 add m w w neg d x w2 sub y w2 sub m w w d s} def
/m32 {mp x y w2 sub m w2 w d w neg 0 d cl s} def
/m33 {mp x y w2 add m w3 neg w2 neg d w3 w2 neg d w3 w2 d cl f} def
/m34 {mp x w2 sub y w2 sub w3 add m w3 0 d  0 w3 neg d w3 0 d 0 w3 d w3 0 d  0 w3 d w3 neg 0 d 0 w3 d w3 neg 0 d 0 w3 neg d w3 neg 0 d cl f } def
/m35 {mp x y w2 add m w2 neg w2 neg d w2 w2 neg d w2 w2 d w2 neg w2 d x y w2 sub m 0 w d x w2 sub y m w 0 d s} def
/m36 {mb x w2 sub y w2 add m w w neg d x w2 sub y w2 sub m w w d s} def
/m37 {mp x y m w4 neg w2 d w4 neg w2 neg d w2 0 d  w4 neg w2 neg d w2 0 d w4 neg w2 d w2 0 d w4 neg w2 d w4 neg w2 neg d cl s} def
/m38 {mp x w4 sub y w2 add m w4 neg w4 neg d 0 w2 neg d w4 w4 neg d w2 0 d w4 w4 d 0 w2 d w4 neg w4 d w2 neg 0 d x y w2 sub m 0 w d x w2 sub y m w 0 d cl s} def
/m39 {mp x y m w4 neg w2 d w4 neg w2 neg d w2 0 d  w4 neg w2 neg d w2 0 d w4 neg w2 d w2 0 d w4 neg w2 d w4 neg w2 neg d cl f} def
/m40 {mp x y m w4 w2 d w4 w4 neg d w2 neg w4 neg d w2 w4 neg d w4 neg w4 neg d w4 neg w2 d w4 neg w2 neg d w4 neg w4 d w2 w4 d w2 neg w4 d w4 w4 d w4 w2 neg d cl s} def
/m41 {mp x y m w4 w2 d w4 w4 neg d w2 neg w4 neg d w2 w4 neg d w4 neg w4 neg d w4 neg w2 d w4 neg w2 neg d w4 neg w4 d w2 w4 d w2 neg w4 d w4 w4 d w4 w2 neg d cl f} def
/m42 {mp x y w2 add m w8 neg w2 -3 4 div mul d w2 -3 4 div mul w8 neg d w2 3 4 div mul w8 neg d w8 w2 -3 4 div mul d w8 w2 3 4 div mul d w2 3 4 div mul w8 d w2 -3 4 div mul w8 d w8 neg w2 3 4 div mul d cl s} def
/m43 {mp x y w2 add m w8 neg w2 -3 4 div mul d w2 -3 4 div mul w8 neg d w2 3 4 div mul w8 neg d w8 w2 -3 4 div mul d w8 w2 3 4 div mul d w2 3 4 div mul w8 d w2 -3 4 div mul w8 d w8 neg w2 3 4 div mul d cl f} def
/m44 {mp x y m w6 neg w2 d w2 2 3 div mul 0 d w6 neg w2 neg d w2 w6 d 0 w2 -2 3 div mul d w2 neg w6 d w6 w2 neg d w2 -2 3 div mul 0 d w6 w2 d w2 neg w6 neg d 0 w2 2 3 div mul d w2 w6 neg d cl s} def
/m45 {mp x y m w6 neg w2 d w2 2 3 div mul 0 d w6 neg w2 neg d w2 w6 d 0 w2 -2 3 div mul d w2 neg w6 d w6 w2 neg d w2 -2 3 div mul 0 d w6 w2 d w2 neg w6 neg d 0 w2 2 3 div mul d w2 w6 neg d cl f} def
/m46 {mp x y w4 add m w4 neg w4 d w4 neg w4 neg d  w4 w4 neg d w4 neg w4 neg d w4 w4 neg d w4 w4 d w4 w4 neg d w4 w4 d w4 neg w4 d w4 w4 d w4 neg w4 d w4 neg w4 neg d cl s} def
/m47 {mp x y w4 add m w4 neg w4 d w4 neg w4 neg d w4 w4 neg d w4 neg w4 neg d  w4 w4 neg d w4 w4 d w4 w4 neg d w4 w4 d w4 neg w4 d w4 w4 d w4 neg w4 d w4 neg w4 neg d cl f} def
/m48 {mp x y w4 add m w4 neg w4 d w4 neg w4 neg d w4 w4 neg d  w4 neg w4 neg d w4 w4 neg d w4 w4 d w4 w4 neg d w4 w4 d w4 neg w4 d w4 w4 d w4 neg w4 d w4 neg w4 neg d  w4 w4 neg d w4 neg w4 neg d w4 neg w4 d w4 w4 d cl f} def
/m49 {mp x w2 sub w3 add y w2 sub w3 add m  0 w3 neg d w3 0 d 0 w3 d w3 0 d 0 w3 d w3 neg 0 d 0 w3 d w3 neg 0 d 0 w3 neg d w3 neg 0 d 0 w3 neg d w3 0 d 0 w3 d w3 0 d 0 w3 neg d w3 neg 0 d cl f } def
/m2 {mp x y w2 sub m 0 w d x w2 sub y m w 0 d s} def
/m5 {mp x w2 sub y w2 sub m w w d x w2 sub y w2 add m w w neg d s} def
%%IncludeResource: ProcSet (FontSetInit)
%%IncludeResource: font Times-Roman
%%IncludeResource: font Times-Italic
%%IncludeResource: font Times-Bold
%%IncludeResource: font Times-BoldItalic
%%IncludeResource: font Helvetica
%%IncludeResource: font Helvetica-Oblique
%%IncludeResource: font Helvetica-Bold
%%IncludeResource: font Helvetica-BoldOblique
%%IncludeResource: font Courier
%%IncludeResource: font Courier-Oblique
%%IncludeResource: font Courier-Bold
%%IncludeResource: font Courier-BoldOblique
%%IncludeResource: font Symbol
%%IncludeResource: font ZapfDingbats
/reEncode {exch findfont dup length dict begin {1 index /FID eq  {pop pop} {def} ifelse } forall /Encoding exch def currentdict end dup /FontName get exch definefont pop } def [/Times-Bold /Times-Italic /Times-BoldItalic /Helvetica /Helvetica-Oblique
 /Helvetica-Bold /Helvetica-BoldOblique /Courier /Courier-Oblique /Courier-Bold /Courier-BoldOblique /Times-Roman /AvantGarde-Book /AvantGarde-BookOblique /AvantGarde-Demi /AvantGarde-DemiOblique /Bookman-Demi /Bookman-DemiItalic /Bookman-Light
 /Bookman-LightItalic /Helvetica-Narrow /Helvetica-Narrow-Bold /Helvetica-Narrow-BoldOblique /Helvetica-Narrow-Oblique /NewCenturySchlbk-Roman /NewCenturySchlbk-Bold /NewCenturySchlbk-BoldItalic /NewCenturySchlbk-Italic /Palatino-Bold
 /Palatino-BoldItalic /Palatino-Italic /Palatino-Roman ] {ISOLatin1Encoding reEncode } forall
%%EndProlog
%%BeginSetup
%%EndSetup
newpath  gsave  .25 .25 scale  gsave  0 0 t black[  ] 0 sd 3 lw 1 1 1 c 2268 731 0 0 bf black 1 1 1 c 2086 482 136 234 bf black 2086 482 136 234 bl 1 1 1 c 2086 482 136 234 bf black 2086 482 136 234 bl 6 lw 1 1 1 c black 136 275 m 26 X 74 Y 26 X -80
 Y 26 X -20 Y 26 X 53 Y 26 X -40 Y 27 X -14 Y 26 X 5 Y 26 X -9 Y 26 X -4 Y 26 X -2 Y 26 X -2 Y 52 X -1 Y 26 X -1 Y 52 X 2 Y 26 X 2 Y 26 X -1 Y 27 X -1 Y 26 X 10 Y 26 X -3 Y 26 X -4 Y 52 X 1 Y 26 X -2 Y 26 X -4 Y 26 X 1 Y 52 X -1 Y 79 X 136 Y 26 X 221
 Y 26 X -249 Y 26 X -61 Y 26 X 154 Y 26 X -122 Y 26 X -39 Y 26 X 14 Y 26 X -27 Y 26 X -10 Y 26 X -5 Y 26 X -5 Y 27 X -2 Y 26 X -3 Y 26 X -1 Y 52 X 19 Y 26 X 38 Y 26 X -40 Y 26 X -10 Y 26 X 26 Y 26 X -20 Y 26 X -7 Y 26 X 2 Y 26 X -4 Y 27 X -2 Y 26 X
 -1 Y 26 X -1 Y 52 X -1 Y 78 X 1 Y 26 X 1 Y 52 X -1 Y 26 X 5 Y 26 X -2 Y 27 X -1 Y 78 X -1 Y 26 X -2 Y 52 X 1 Y 26 X -1 Y 78 X s 3 lw 136 234 m 2086 X s
 gsave  2268 731 0 0 C 153.326 105.057 t 90 r /Helvetica findfont 13.2504 sf 0 0 m (QQ2HNUNU_FWDH) show NC gr 
 gsave  2268 731 0 0 C 179.827 60.5734 t 90 r /Helvetica findfont 13.2504 sf 0 0 m (QQ2HNUNU_PTV_0_75_0J) show NC gr 
 gsave  2268 731 0 0 C 205.382 60.5734 t 90 r /Helvetica findfont 13.2504 sf 0 0 m (QQ2HNUNU_PTV_0_75_1J) show NC gr 
 gsave  2268 731 0 0 C 231.883 41.6442 t 90 r /Helvetica findfont 13.2504 sf 0 0 m (QQ2HNUNU_PTV_0_75_GE2J) show NC gr 
 gsave  2268 731 0 0 C 257.437 45.43 t 90 r /Helvetica findfont 13.2504 sf 0 0 m (QQ2HNUNU_PTV_75_150_0J) show NC gr 
 gsave  2268 731 0 0 C 283.938 45.43 t 90 r /Helvetica findfont 13.2504 sf 0 0 m (QQ2HNUNU_PTV_75_150_1J) show NC gr 
 gsave  2268 731 0 0 C 309.492 26.5009 t 90 r /Helvetica findfont 13.2504 sf 0 0 m (QQ2HNUNU_PTV_75_150_GE2J) show NC gr 
 gsave  2268 731 0 0 C 335.993 37.8584 t 90 r /Helvetica findfont 13.2504 sf 0 0 m (QQ2HNUNU_PTV_150_250_0J) show NC gr 
 gsave  2268 731 0 0 C 361.547 37.8584 t 90 r /Helvetica findfont 13.2504 sf 0 0 m (QQ2HNUNU_PTV_150_250_1J) show NC gr 
 gsave  2268 731 0 0 C 388.048 18.9292 t 90 r /Helvetica findfont 13.2504 sf 0 0 m (QQ2HNUNU_PTV_150_250_GE2J) show NC gr 
 gsave  2268 731 0 0 C 414.549 37.8584 t 90 r /Helvetica findfont 13.2504 sf 0 0 m (QQ2HNUNU_PTV_250_400_0J) show NC gr 
 gsave  2268 731 0 0 C 440.104 37.8584 t 90 r /Helvetica findfont 13.2504 sf 0 0 m (QQ2HNUNU_PTV_250_400_1J) show NC gr 
 gsave  2268 731 0 0 C 466.604 18.9292 t 90 r /Helvetica findfont 13.2504 sf 0 0 m (QQ2HNUNU_PTV_250_400_GE2J) show NC gr 
 gsave  2268 731 0 0 C 492.159 49.2159 t 90 r /Helvetica findfont 13.2504 sf 0 0 m (QQ2HNUNU_PTV_GT400_0J) show NC gr 
 gsave  2268 731 0 0 C 518.66 49.2159 t 90 r /Helvetica findfont 13.2504 sf 0 0 m (QQ2HNUNU_PTV_GT400_1J) show NC gr 
 gsave  2268 731 0 0 C 544.214 30.2867 t 90 r /Helvetica findfont 13.2504 sf 0 0 m (QQ2HNUNU_PTV_GT400_GE2J) show NC gr 
 gsave  2268 731 0 0 C 570.715 105.057 t 90 r /Helvetica findfont 13.2504 sf 0 0 m (GG2HNUNU_FWDH) show NC gr 
 gsave  2268 731 0 0 C 596.269 60.5734 t 90 r /Helvetica findfont 13.2504 sf 0 0 m (GG2HNUNU_PTV_0_75_0J) show NC gr 
 gsave  2268 731 0 0 C 622.77 60.5734 t 90 r /Helvetica findfont 13.2504 sf 0 0 m (GG2HNUNU_PTV_0_75_1J) show NC gr 
 gsave  2268 731 0 0 C 649.271 41.6442 t 90 r /Helvetica findfont 13.2504 sf 0 0 m (GG2HNUNU_PTV_0_75_GE2J) show NC gr 
 gsave  2268 731 0 0 C 674.826 45.43 t 90 r /Helvetica findfont 13.2504 sf 0 0 m (GG2HNUNU_PTV_75_150_0J) show NC gr 
 gsave  2268 731 0 0 C 701.326 45.43 t 90 r /Helvetica findfont 13.2504 sf 0 0 m (GG2HNUNU_PTV_75_150_1J) show NC gr 
 gsave  2268 731 0 0 C 726.881 26.5009 t 90 r /Helvetica findfont 13.2504 sf 0 0 m (GG2HNUNU_PTV_75_150_GE2J) show NC gr 
 gsave  2268 731 0 0 C 753.382 37.8584 t 90 r /Helvetica findfont 13.2504 sf 0 0 m (GG2HNUNU_PTV_150_250_0J) show NC gr 
 gsave  2268 731 0 0 C 778.936 37.8584 t 90 r /Helvetica findfont 13.2504 sf 0 0 m (GG2HNUNU_PTV_150_250_1J) show NC gr 
 gsave  2268 731 0 0 C 805.437 18.9292 t 90 r /Helvetica findfont 13.2504 sf 0 0 m (GG2HNUNU_PTV_150_250_GE2J) show NC gr 
 gsave  2268 731 0 0 C 830.991 37.8584 t 90 r /Helvetica findfont 13.2504 sf 0 0 m (GG2HNUNU_PTV_250_400_0J) show NC gr 
 gsave  2268 731 0 0 C 857.492 37.8584 t 90 r /Helvetica findfont 13.2504 sf 0 0 m (GG2HNUNU_PTV_250_400_1J) show NC gr 
 gsave  2268 731 0 0 C 883.993 18.9292 t 90 r /Helvetica findfont 13.2504 sf 0 0 m (GG2HNUNU_PTV_250_400_GE2J) show NC gr 
 gsave  2268 731 0 0 C 909.547 49.2159 t 90 r /Helvetica findfont 13.2504 sf 0 0 m (GG2HNUNU_PTV_GT400_0J) show NC gr 
 gsave  2268 731 0 0 C 936.048 49.2159 t 90 r /Helvetica findfont 13.2504 sf 0 0 m (GG2HNUNU_PTV_GT400_1J) show NC gr 
 gsave  2268 731 0 0 C 961.603 30.2867 t 90 r /Helvetica findfont 13.2504 sf 0 0 m (GG2HNUNU_PTV_GT400_GE2J) show NC gr 
 gsave  2268 731 0 0 C 988.104 116.414 t 90 r /Helvetica findfont 13.2504 sf 0 0 m (QQ2HLNU_FWDH) show NC gr 
 gsave  2268 731 0 0 C 1013.66 71.9309 t 90 r /Helvetica findfont 13.2504 sf 0 0 m (QQ2HLNU_PTV_0_75_0J) show NC gr 
 gsave  2268 731 0 0 C 1040.16 71.9309 t 90 r /Helvetica findfont 13.2504 sf 0 0 m (QQ2HLNU_PTV_0_75_1J) show NC gr 
 gsave  2268 731 0 0 C 1065.71 53.0017 t 90 r /Helvetica findfont 13.2504 sf 0 0 m (QQ2HLNU_PTV_0_75_GE2J) show NC gr 
 gsave  2268 731 0 0 C 1092.21 57.734 t 90 r /Helvetica findfont 13.2504 sf 0 0 m (QQ2HLNU_PTV_75_150_0J) show NC gr 
 gsave  2268 731 0 0 C 1118.71 57.734 t 90 r /Helvetica findfont 13.2504 sf 0 0 m (QQ2HLNU_PTV_75_150_1J) show NC gr 
 gsave  2268 731 0 0 C 1144.27 37.8584 t 90 r /Helvetica findfont 13.2504 sf 0 0 m (QQ2HLNU_PTV_75_150_GE2J) show NC gr 
 gsave  2268 731 0 0 C 1170.77 50.1623 t 90 r /Helvetica findfont 13.2504 sf 0 0 m (QQ2HLNU_PTV_150_250_0J) show NC gr 
 gsave  2268 731 0 0 C 1196.32 50.1623 t 90 r /Helvetica findfont 13.2504 sf 0 0 m (QQ2HLNU_PTV_150_250_1J) show NC gr 
 gsave  2268 731 0 0 C 1222.83 31.2332 t 90 r /Helvetica findfont 13.2504 sf 0 0 m (QQ2HLNU_PTV_150_250_GE2J) show NC gr 
 gsave  2268 731 0 0 C 1248.38 50.1623 t 90 r /Helvetica findfont 13.2504 sf 0 0 m (QQ2HLNU_PTV_250_400_0J) show NC gr 
 gsave  2268 731 0 0 C 1274.88 50.1623 t 90 r /Helvetica findfont 13.2504 sf 0 0 m (QQ2HLNU_PTV_250_400_1J) show NC gr 
 gsave  2268 731 0 0 C 1300.44 31.2332 t 90 r /Helvetica findfont 13.2504 sf 0 0 m (QQ2HLNU_PTV_250_400_GE2J) show NC gr 
 gsave  2268 731 0 0 C 1326.94 61.5199 t 90 r /Helvetica findfont 13.2504 sf 0 0 m (QQ2HLNU_PTV_GT400_0J) show NC gr 
 gsave  2268 731 0 0 C 1353.44 61.5199 t 90 r /Helvetica findfont 13.2504 sf 0 0 m (QQ2HLNU_PTV_GT400_1J) show NC gr 
 gsave  2268 731 0 0 C 1378.99 41.6442 t 90 r /Helvetica findfont 13.2504 sf 0 0 m (QQ2HLNU_PTV_GT400_GE2J) show NC gr 
 gsave  2268 731 0 0 C 1405.49 127.772 t 90 r /Helvetica findfont 13.2504 sf 0 0 m (QQ2HLL_FWDH) show NC gr 
 gsave  2268 731 0 0 C 1431.05 84.2349 t 90 r /Helvetica findfont 13.2504 sf 0 0 m (QQ2HLL_PTV_0_75_0J) show NC gr 
 gsave  2268 731 0 0 C 1457.55 84.2349 t 90 r /Helvetica findfont 13.2504 sf 0 0 m (QQ2HLL_PTV_0_75_1J) show NC gr 
 gsave  2268 731 0 0 C 1483.1 64.3592 t 90 r /Helvetica findfont 13.2504 sf 0 0 m (QQ2HLL_PTV_0_75_GE2J) show NC gr 
 gsave  2268 731 0 0 C 1509.6 69.0915 t 90 r /Helvetica findfont 13.2504 sf 0 0 m (QQ2HLL_PTV_75_150_0J) show NC gr 
 gsave  2268 731 0 0 C 1535.16 69.0915 t 90 r /Helvetica findfont 13.2504 sf 0 0 m (QQ2HLL_PTV_75_150_1J) show NC gr 
 gsave  2268 731 0 0 C 1561.66 50.1623 t 90 r /Helvetica findfont 13.2504 sf 0 0 m (QQ2HLL_PTV_75_150_GE2J) show NC gr 
 gsave  2268 731 0 0 C 1588.16 61.5199 t 90 r /Helvetica findfont 13.2504 sf 0 0 m (QQ2HLL_PTV_150_250_0J) show NC gr 
 gsave  2268 731 0 0 C 1613.71 61.5199 t 90 r /Helvetica findfont 13.2504 sf 0 0 m (QQ2HLL_PTV_150_250_1J) show NC gr 
 gsave  2268 731 0 0 C 1640.21 42.5907 t 90 r /Helvetica findfont 13.2504 sf 0 0 m (QQ2HLL_PTV_150_250_GE2J) show NC gr 
 gsave  2268 731 0 0 C 1665.77 61.5199 t 90 r /Helvetica findfont 13.2504 sf 0 0 m (QQ2HLL_PTV_250_400_0J) show NC gr 
 gsave  2268 731 0 0 C 1692.27 61.5199 t 90 r /Helvetica findfont 13.2504 sf 0 0 m (QQ2HLL_PTV_250_400_1J) show NC gr 
 gsave  2268 731 0 0 C 1717.82 42.5907 t 90 r /Helvetica findfont 13.2504 sf 0 0 m (QQ2HLL_PTV_250_400_GE2J) show NC gr 
 gsave  2268 731 0 0 C 1744.32 72.8774 t 90 r /Helvetica findfont 13.2504 sf 0 0 m (QQ2HLL_PTV_GT400_0J) show NC gr 
 gsave  2268 731 0 0 C 1769.88 72.8774 t 90 r /Helvetica findfont 13.2504 sf 0 0 m (QQ2HLL_PTV_GT400_1J) show NC gr 
 gsave  2268 731 0 0 C 1796.38 53.9482 t 90 r /Helvetica findfont 13.2504 sf 0 0 m (QQ2HLL_PTV_GT400_GE2J) show NC gr 
 gsave  2268 731 0 0 C 1821.93 127.772 t 90 r /Helvetica findfont 13.2504 sf 0 0 m (GG2HLL_FWDH) show NC gr 
 gsave  2268 731 0 0 C 1848.44 84.2349 t 90 r /Helvetica findfont 13.2504 sf 0 0 m (GG2HLL_PTV_0_75_0J) show NC gr 
 gsave  2268 731 0 0 C 1874.94 84.2349 t 90 r /Helvetica findfont 13.2504 sf 0 0 m (GG2HLL_PTV_0_75_1J) show NC gr 
 gsave  2268 731 0 0 C 1900.49 64.3592 t 90 r /Helvetica findfont 13.2504 sf 0 0 m (GG2HLL_PTV_0_75_GE2J) show NC gr 
 gsave  2268 731 0 0 C 1926.99 69.0915 t 90 r /Helvetica findfont 13.2504 sf 0 0 m (GG2HLL_PTV_75_150_0J) show NC gr 
 gsave  2268 731 0 0 C 1952.55 69.0915 t 90 r /Helvetica findfont 13.2504 sf 0 0 m (GG2HLL_PTV_75_150_1J) show NC gr 
 gsave  2268 731 0 0 C 1979.05 50.1623 t 90 r /Helvetica findfont 13.2504 sf 0 0 m (GG2HLL_PTV_75_150_GE2J) show NC gr 
 gsave  2268 731 0 0 C 2004.6 61.5199 t 90 r /Helvetica findfont 13.2504 sf 0 0 m (GG2HLL_PTV_150_250_0J) show NC gr 
 gsave  2268 731 0 0 C 2031.1 61.5199 t 90 r /Helvetica findfont 13.2504 sf 0 0 m (GG2HLL_PTV_150_250_1J) show NC gr 
 gsave  2268 731 0 0 C 2056.66 42.5907 t 90 r /Helvetica findfont 13.2504 sf 0 0 m (GG2HLL_PTV_150_250_GE2J) show NC gr 
 gsave  2268 731 0 0 C 2083.16 61.5199 t 90 r /Helvetica findfont 13.2504 sf 0 0 m (GG2HLL_PTV_250_400_0J) show NC gr 
 gsave  2268 731 0 0 C 2109.66 61.5199 t 90 r /Helvetica findfont 13.2504 sf 0 0 m (GG2HLL_PTV_250_400_1J) show NC gr 
 gsave  2268 731 0 0 C 2135.21 42.5907 t 90 r /Helvetica findfont 13.2504 sf 0 0 m (GG2HLL_PTV_250_400_GE2J) show NC gr 
 gsave  2268 731 0 0 C 2161.71 72.8774 t 90 r /Helvetica findfont 13.2504 sf 0 0 m (GG2HLL_PTV_GT400_0J) show NC gr 
 gsave  2268 731 0 0 C 2187.27 72.8774 t 90 r /Helvetica findfont 13.2504 sf 0 0 m (GG2HLL_PTV_GT400_1J) show NC gr 
 gsave  2268 731 0 0 C 2213.77 53.9482 t 90 r /Helvetica findfont 13.2504 sf 0 0 m (GG2HLL_PTV_GT400_GE2J) show NC gr  136 254 m -20 Y s 162 254 m -20 Y s 188 254 m -20 Y s 214 254 m -20 Y s 240 254 m -20 Y s 266 254 m -20 Y s 293 254 m -20 Y s 319
 254 m -20 Y s 345 254 m -20 Y s 371 254 m -20 Y s 397 254 m -20 Y s 423 254 m -20 Y s 449 254 m -20 Y s 475 254 m -20 Y s 501 254 m -20 Y s 527 254 m -20 Y s 553 254 m -20 Y s 579 254 m -20 Y s 605 254 m -20 Y s 632 254 m -20 Y s 658 254 m -20 Y s
 684 254 m -20 Y s 710 254 m -20 Y s 736 254 m -20 Y s 762 254 m -20 Y s 788 254 m -20 Y s 814 254 m -20 Y s 840 254 m -20 Y s 866 254 m -20 Y s 892 254 m -20 Y s 918 254 m -20 Y s 945 254 m -20 Y s 971 254 m -20 Y s 997 254 m -20 Y s 1023 254 m -20
 Y s 1049 254 m -20 Y s 1075 254 m -20 Y s 1101 254 m -20 Y s 1127 254 m -20 Y s 1153 254 m -20 Y s 1179 254 m -20 Y s 1205 254 m -20 Y s 1231 254 m -20 Y s 1257 254 m -20 Y s 1284 254 m -20 Y s 1310 254 m -20 Y s 1336 254 m -20 Y s 1362 254 m -20 Y
 s 1388 254 m -20 Y s 1414 254 m -20 Y s 1440 254 m -20 Y s 1466 254 m -20 Y s 1492 254 m -20 Y s 1518 254 m -20 Y s 1544 254 m -20 Y s 1570 254 m -20 Y s 1596 254 m -20 Y s 1623 254 m -20 Y s 1649 254 m -20 Y s 1675 254 m -20 Y s 1701 254 m -20 Y s
 1727 254 m -20 Y s 1753 254 m -20 Y s 1779 254 m -20 Y s 1805 254 m -20 Y s 1831 254 m -20 Y s 1857 254 m -20 Y s 1883 254 m -20 Y s 1909 254 m -20 Y s 1935 254 m -20 Y s 1962 254 m -20 Y s 1988 254 m -20 Y s 2014 254 m -20 Y s 2040 254 m -20 Y s
 2066 254 m -20 Y s 2092 254 m -20 Y s 2118 254 m -20 Y s 2144 254 m -20 Y s 2170 254 m -20 Y s 2196 254 m -20 Y s 2222 254 m -20 Y s 136 234 m 482 Y s 181 234 m -45 X s 159 254 m -23 X s 159 275 m -23 X s 159 295 m -23 X s 181 315 m -45 X s 159 336
 m -23 X s 159 356 m -23 X s 159 376 m -23 X s 181 397 m -45 X s 159 417 m -23 X s 159 437 m -23 X s 159 458 m -23 X s 181 478 m -45 X s 159 498 m -23 X s 159 519 m -23 X s 159 539 m -23 X s 181 559 m -45 X s 159 580 m -23 X s 159 600 m -23 X s 159
 620 m -23 X s 181 641 m -45 X s 181 641 m -45 X s 159 661 m -23 X s 159 681 m -23 X s 159 702 m -23 X s
 gsave  2268 731 0 0 C 111.682 226.204 t 0 r /Helvetica findfont 23.6615 sf 0 0 m (0) show NC gr 
 gsave  2268 731 0 0 C 98.4318 307.599 t 0 r /Helvetica findfont 23.6615 sf 0 0 m (20) show NC gr 
 gsave  2268 731 0 0 C 98.4318 388.995 t 0 r /Helvetica findfont 23.6615 sf 0 0 m (40) show NC gr 
 gsave  2268 731 0 0 C 98.4318 470.39 t 0 r /Helvetica findfont 23.6615 sf 0 0 m (60) show NC gr 
 gsave  2268 731 0 0 C 98.4318 551.786 t 0 r /Helvetica findfont 23.6615 sf 0 0 m (80) show NC gr 
 gsave  2268 731 0 0 C 85.1813 633.181 t 0 r /Helvetica findfont 23.6615 sf 0 0 m (100) show NC gr 
 gsave  2268 731 0 0 C 23.6615 540.428 t 90 r /Helvetica findfont 23.6615 sf 0 0 m (cross section [fb]) show NC gr 
 gsave  2268 731 0 0 C 153.326 278.259 t 90 r /Helvetica-Bold findfont 10.4111 sf 0 0 m (10.01) show NC gr 
 gsave  2268 731 0 0 C 179.827 352.083 t 90 r /Helvetica-Bold findfont 10.4111 sf 0 0 m (28.32) show NC gr 
 gsave  2268 731 0 0 C 205.382 272.58 t 90 r /Helvetica-Bold findfont 10.4111 sf 0 0 m (8.77) show NC gr 
 gsave  2268 731 0 0 C 231.883 252.705 t 90 r /Helvetica-Bold findfont 10.4111 sf 0 0 m (3.74) show NC gr 
 gsave  2268 731 0 0 C 257.437 305.706 t 90 r /Helvetica-Bold findfont 10.4111 sf 0 0 m (16.86) show NC gr 
 gsave  2268 731 0 0 C 283.938 265.009 t 90 r /Helvetica-Bold findfont 10.4111 sf 0 0 m (6.82) show NC gr 
 gsave  2268 731 0 0 C 309.492 251.758 t 90 r /Helvetica-Bold findfont 10.4111 sf 0 0 m (3.47) show NC gr 
 gsave  2268 731 0 0 C 335.993 256.49 t 90 r /Helvetica-Bold findfont 10.4111 sf 0 0 m (4.69) show NC gr 
 gsave  2268 731 0 0 C 361.547 247.026 t 90 r /Helvetica-Bold findfont 10.4111 sf 0 0 m (2.39) show NC gr 
 gsave  2268 731 0 0 C 388.048 243.24 t 90 r /Helvetica-Bold findfont 10.4111 sf 0 0 m (1.51) show NC gr 
 gsave  2268 731 0 0 C 414.549 241.347 t 90 r /Helvetica-Bold findfont 10.4111 sf 0 0 m (1.02) show NC gr 
 gsave  2268 731 0 0 C 440.104 239.454 t 90 r /Helvetica-Bold findfont 10.4111 sf 0 0 m (0.60) show NC gr 
 gsave  2268 731 0 0 C 466.604 239.454 t 90 r /Helvetica-Bold findfont 10.4111 sf 0 0 m (0.46) show NC gr 
 gsave  2268 731 0 0 C 492.159 237.561 t 90 r /Helvetica-Bold findfont 10.4111 sf 0 0 m (0.19) show NC gr 
 gsave  2268 731 0 0 C 518.66 237.561 t 90 r /Helvetica-Bold findfont 10.4111 sf 0 0 m (0.13) show NC gr 
 gsave  2268 731 0 0 C 544.214 237.561 t 90 r /Helvetica-Bold findfont 10.4111 sf 0 0 m (0.11) show NC gr 
 gsave  2268 731 0 0 C 570.715 239.454 t 90 r /Helvetica-Bold findfont 10.4111 sf 0 0 m (0.47) show NC gr 
 gsave  2268 731 0 0 C 596.269 242.294 t 90 r /Helvetica-Bold findfont 10.4111 sf 0 0 m (1.14) show NC gr 
 gsave  2268 731 0 0 C 622.77 240.401 t 90 r /Helvetica-Bold findfont 10.4111 sf 0 0 m (0.89) show NC gr 
 gsave  2268 731 0 0 C 649.271 239.454 t 90 r /Helvetica-Bold findfont 10.4111 sf 0 0 m (0.53) show NC gr 
 gsave  2268 731 0 0 C 674.826 249.865 t 90 r /Helvetica-Bold findfont 10.4111 sf 0 0 m (3.01) show NC gr 
 gsave  2268 731 0 0 C 701.326 246.079 t 90 r /Helvetica-Bold findfont 10.4111 sf 0 0 m (2.26) show NC gr 
 gsave  2268 731 0 0 C 726.881 242.294 t 90 r /Helvetica-Bold findfont 10.4111 sf 0 0 m (1.32) show NC gr 
 gsave  2268 731 0 0 C 753.382 242.294 t 90 r /Helvetica-Bold findfont 10.4111 sf 0 0 m (1.34) show NC gr 
 gsave  2268 731 0 0 C 778.936 243.24 t 90 r /Helvetica-Bold findfont 10.4111 sf 0 0 m (1.48) show NC gr 
 gsave  2268 731 0 0 C 805.437 241.347 t 90 r /Helvetica-Bold findfont 10.4111 sf 0 0 m (1.12) show NC gr 
 gsave  2268 731 0 0 C 830.991 237.561 t 90 r /Helvetica-Bold findfont 10.4111 sf 0 0 m (0.12) show NC gr 
 gsave  2268 731 0 0 C 857.492 238.508 t 90 r /Helvetica-Bold findfont 10.4111 sf 0 0 m (0.24) show NC gr 
 gsave  2268 731 0 0 C 883.993 238.508 t 90 r /Helvetica-Bold findfont 10.4111 sf 0 0 m (0.33) show NC gr 
 gsave  2268 731 0 0 C 909.547 237.561 t 90 r /Helvetica-Bold findfont 10.4111 sf 0 0 m (0.00) show NC gr 
 gsave  2268 731 0 0 C 936.048 237.561 t 90 r /Helvetica-Bold findfont 10.4111 sf 0 0 m (0.02) show NC gr 
 gsave  2268 731 0 0 C 961.603 237.561 t 90 r /Helvetica-Bold findfont 10.4111 sf 0 0 m (0.04) show NC gr 
 gsave  2268 731 0 0 C 988.104 372.905 t 90 r /Helvetica-Bold findfont 10.4111 sf 0 0 m (33.41) show NC gr 
 gsave  2268 731 0 0 C 1013.66 594.376 t 90 r /Helvetica-Bold findfont 10.4111 sf 0 0 m (87.78) show NC gr 
 gsave  2268 731 0 0 C 1040.16 345.458 t 90 r /Helvetica-Bold findfont 10.4111 sf 0 0 m (26.65) show NC gr 
 gsave  2268 731 0 0 C 1065.71 283.938 t 90 r /Helvetica-Bold findfont 10.4111 sf 0 0 m (11.52) show NC gr 
 gsave  2268 731 0 0 C 1092.21 438.211 t 90 r /Helvetica-Bold findfont 10.4111 sf 0 0 m (49.33) show NC gr 
 gsave  2268 731 0 0 C 1118.71 316.117 t 90 r /Helvetica-Bold findfont 10.4111 sf 0 0 m (19.42) show NC gr 
 gsave  2268 731 0 0 C 1144.27 277.313 t 90 r /Helvetica-Bold findfont 10.4111 sf 0 0 m (9.85) show NC gr 
 gsave  2268 731 0 0 C 1170.77 291.509 t 90 r /Helvetica-Bold findfont 10.4111 sf 0 0 m (13.26) show NC gr 
 gsave  2268 731 0 0 C 1196.32 264.062 t 90 r /Helvetica-Bold findfont 10.4111 sf 0 0 m (6.61) show NC gr 
 gsave  2268 731 0 0 C 1222.83 253.651 t 90 r /Helvetica-Bold findfont 10.4111 sf 0 0 m (4.13) show NC gr 
 gsave  2268 731 0 0 C 1248.38 248.919 t 90 r /Helvetica-Bold findfont 10.4111 sf 0 0 m (2.90) show NC gr 
 gsave  2268 731 0 0 C 1274.88 244.187 t 90 r /Helvetica-Bold findfont 10.4111 sf 0 0 m (1.68) show NC gr 
 gsave  2268 731 0 0 C 1300.44 242.294 t 90 r /Helvetica-Bold findfont 10.4111 sf 0 0 m (1.25) show NC gr 
 gsave  2268 731 0 0 C 1326.94 239.454 t 90 r /Helvetica-Bold findfont 10.4111 sf 0 0 m (0.56) show NC gr 
 gsave  2268 731 0 0 C 1353.44 238.508 t 90 r /Helvetica-Bold findfont 10.4111 sf 0 0 m (0.37) show NC gr 
 gsave  2268 731 0 0 C 1378.99 238.508 t 90 r /Helvetica-Bold findfont 10.4111 sf 0 0 m (0.32) show NC gr 
 gsave  2268 731 0 0 C 1405.49 257.437 t 90 r /Helvetica-Bold findfont 10.4111 sf 0 0 m (5.06) show NC gr 
 gsave  2268 731 0 0 C 1431.05 295.295 t 90 r /Helvetica-Bold findfont 10.4111 sf 0 0 m (14.38) show NC gr 
 gsave  2268 731 0 0 C 1457.55 255.544 t 90 r /Helvetica-Bold findfont 10.4111 sf 0 0 m (4.43) show NC gr 
 gsave  2268 731 0 0 C 1483.1 245.133 t 90 r /Helvetica-Bold findfont 10.4111 sf 0 0 m (1.90) show NC gr 
 gsave  2268 731 0 0 C 1509.6 271.634 t 90 r /Helvetica-Bold findfont 10.4111 sf 0 0 m (8.44) show NC gr 
 gsave  2268 731 0 0 C 1535.16 250.812 t 90 r /Helvetica-Bold findfont 10.4111 sf 0 0 m (3.41) show NC gr 
 gsave  2268 731 0 0 C 1561.66 244.187 t 90 r /Helvetica-Bold findfont 10.4111 sf 0 0 m (1.73) show NC gr 
 gsave  2268 731 0 0 C 1588.16 247.026 t 90 r /Helvetica-Bold findfont 10.4111 sf 0 0 m (2.32) show NC gr 
 gsave  2268 731 0 0 C 1613.71 242.294 t 90 r /Helvetica-Bold findfont 10.4111 sf 0 0 m (1.18) show NC gr 
 gsave  2268 731 0 0 C 1640.21 240.401 t 90 r /Helvetica-Bold findfont 10.4111 sf 0 0 m (0.75) show NC gr 
 gsave  2268 731 0 0 C 1665.77 239.454 t 90 r /Helvetica-Bold findfont 10.4111 sf 0 0 m (0.50) show NC gr 
 gsave  2268 731 0 0 C 1692.27 238.508 t 90 r /Helvetica-Bold findfont 10.4111 sf 0 0 m (0.29) show NC gr 
 gsave  2268 731 0 0 C 1717.82 238.508 t 90 r /Helvetica-Bold findfont 10.4111 sf 0 0 m (0.22) show NC gr 
 gsave  2268 731 0 0 C 1744.32 237.561 t 90 r /Helvetica-Bold findfont 10.4111 sf 0 0 m (0.09) show NC gr 
 gsave  2268 731 0 0 C 1769.88 237.561 t 90 r /Helvetica-Bold findfont 10.4111 sf 0 0 m (0.06) show NC gr 
 gsave  2268 731 0 0 C 1796.38 237.561 t 90 r /Helvetica-Bold findfont 10.4111 sf 0 0 m (0.05) show NC gr 
 gsave  2268 731 0 0 C 1821.93 238.508 t 90 r /Helvetica-Bold findfont 10.4111 sf 0 0 m (0.23) show NC gr 
 gsave  2268 731 0 0 C 1848.44 239.454 t 90 r /Helvetica-Bold findfont 10.4111 sf 0 0 m (0.59) show NC gr 
 gsave  2268 731 0 0 C 1874.94 239.454 t 90 r /Helvetica-Bold findfont 10.4111 sf 0 0 m (0.46) show NC gr 
 gsave  2268 731 0 0 C 1900.49 238.508 t 90 r /Helvetica-Bold findfont 10.4111 sf 0 0 m (0.27) show NC gr 
 gsave  2268 731 0 0 C 1926.99 243.24 t 90 r /Helvetica-Bold findfont 10.4111 sf 0 0 m (1.50) show NC gr 
 gsave  2268 731 0 0 C 1952.55 241.347 t 90 r /Helvetica-Bold findfont 10.4111 sf 0 0 m (1.12) show NC gr 
 gsave  2268 731 0 0 C 1979.05 239.454 t 90 r /Helvetica-Bold findfont 10.4111 sf 0 0 m (0.67) show NC gr 
 gsave  2268 731 0 0 C 2004.6 240.401 t 90 r /Helvetica-Bold findfont 10.4111 sf 0 0 m (0.70) show NC gr 
 gsave  2268 731 0 0 C 2031.1 240.401 t 90 r /Helvetica-Bold findfont 10.4111 sf 0 0 m (0.76) show NC gr 
 gsave  2268 731 0 0 C 2056.66 239.454 t 90 r /Helvetica-Bold findfont 10.4111 sf 0 0 m (0.56) show NC gr 
 gsave  2268 731 0 0 C 2083.16 237.561 t 90 r /Helvetica-Bold findfont 10.4111 sf 0 0 m (0.06) show NC gr 
 gsave  2268 731 0 0 C 2109.66 237.561 t 90 r /Helvetica-Bold findfont 10.4111 sf 0 0 m (0.12) show NC gr 
 gsave  2268 731 0 0 C 2135.21 237.561 t 90 r /Helvetica-Bold findfont 10.4111 sf 0 0 m (0.17) show NC gr 
 gsave  2268 731 0 0 C 2161.71 237.561 t 90 r /Helvetica-Bold findfont 10.4111 sf 0 0 m (0.00) show NC gr 
 gsave  2268 731 0 0 C 2187.27 237.561 t 90 r /Helvetica-Bold findfont 10.4111 sf 0 0 m (0.01) show NC gr 
 gsave  2268 731 0 0 C 2213.77 237.561 t 90 r /Helvetica-Bold findfont 10.4111 sf 0 0 m (0.02) show NC gr 
 gsave  2268 731 0 0 C 1833.29 657.789 t 0 r /Helvetica findfont 34.0725 sf 0 0 m (Simulation Internal) show NC gr 
 gsave  2268 731 0 0 C 1817.2 657.789 t 0 r /Helvetica-Bold findfont 34.0725 sf 0 0 m ( ) show NC gr 
 gsave  2268 731 0 0 C 1700.79 657.789 t 0 r /Helvetica-BoldOblique findfont 34.0725 sf 0 0 m (ATLAS) show NC gr 
 gr  gr showpage
end
%%EOF
